…
— Ryan O'Hanlon (@rwohan) December 7, 2018

While the site itself is easy to navigate and features nice off-the-shelf exploratory viz tools (à la the above radar), many (myself included) can get a bit fidgety without access to all this stuff in a structured format for analysis.

So, I made a thing to grab understat data and tidy it up, so you can get on with the interesting stuff. Say 👋 to understatr, an R package that makes pulling xG numbers as easy as 🥧

# load package
library(understatr)

# get dortmund playing squad data for this season
dortmund <- get_team_squad_stats(team_name = "Borussia Dortmund", year = 2018)

dortmund

## # A tibble: 23 x 19
##    team_name  year player_name player_id games  time goals     xG assists
##  * <chr>     <int> <chr>           <int> <int> <int> <int>  <dbl>   <int>
##  1 Borussia…  2018 Paco Alcác…      2380     9   354    10 4.11         0
##  2 Borussia…  2018 Marco Reus        319    14  1215     9 7.72         5
##  3 Borussia…  2018 Jadon Sanc…      6345    14   810     5 2.72         6
##  4 Borussia…  2018 Jacob Bruu…      5355    11   775     2 2.34         1
##  5 Borussia…  2018 Mahmoud Da…       205     7   501     1 0.972        0
##  6 Borussia…  2018 Lukasz Pis…       310    10   900     1 0.297        3
##  7 Borussia…  2018 Julian Wei…       372     3   154     1 0.0980       0
##  8 Borussia…  2018 Mario Götze       422     7   320     1 1.09         1
##  9 Borussia…  2018 Christian …      2662     9   393     1 0.787        2
## 10 Borussia…  2018 Marius Wolf      2693     4   260     1 0.234        0
## # ... with 13 more rows, and 10 more variables: xA <dbl>, shots <int>,
## #   key_passes <int>, yellow_cards <int>, red_cards <int>, position <chr>,
## #   npg <int>, npxG <dbl>, xGChain <dbl>, xGBuildup <dbl>
…
