…
— Ryan O'Hanlon (@rwohan) December 7, 2018

While the site itself is easy to navigate and features nice off-the-shelf exploratory viz tools (à la the above radar), many (myself included) can get a bit fidgety without access to all this stuff in a structured format for analysis.

So, I made a thing to grab understat data and tidy it up, so you can get on with the interesting stuff. Say 👋 to understatr, an R package that makes pulling xG numbers as easy as 🥧

# load package
library(understatr)

# get dortmund playing squad data for this season
dortmund <- get_team_players_stats(team_name = "Borussia Dortmund", year = 2018)

dortmund

## # A tibble: 23 x 19
##    player_id player_name games  time goals     xG assists    xA shots
##        <int> <chr>       <int> <int> <int>  <dbl>   <int> <dbl> <int>
##  1       319 Marco Reus     19  1665    13 12.4         6 4.56     52
##  2      2380 Paco Alcác…    18   750    12  6.39        0 1.30     36
##  3      6345 Jadon Sanc…    23  1536     8  4.08       10 5.74     23
##  4       422 Mario Götze    16   894     4  2.93        4 3.10     16
##  5      3059 Axel Witsel    23  1973     3  1.95        1 1.84     29
##  6      3455 Raphael Gu…    14   908     2  2.37        5 2.60     20
##  7      5197 Achraf Hak…    17  1524     2  1.56        4 2.33     17
##  8      5355 Jacob Bruu…    16   864     2  2.26        1 1.77     15
##  9       205 Mahmoud Da…    10   604     1  0.972       0 0.896    10
## 10       310 Lukasz Pis…    17  1513     1  0.382       6 3.00     10
## # … with 13 more rows, and 10 more variables: key_passes <int>,
## #   yellow_cards <int>, red_cards <int>, position <chr>, team_name <chr>,
## #   npg <int>, npxG <dbl>, xGChain <dbl>, xGBuildup <dbl>, year <int>
…
