…
…and understatr can help fetch understat data.

library(understatr)

# get EPL team data
epl_team_stats <- get_league_teams_stats(league_name = "EPL", year = 2019)

# get EPL player data
epl_player_stats <- purrr::map_dfr(unique(epl_team_stats$team_name), get_team_players_stats, year = 2019)

epl_player_stats

## # A tibble: 522 x 19
##    player_id player_name  games  time goals    xG assists    xA shots key_passes
##        <dbl> <chr>        <dbl> <dbl> <dbl> <dbl>   <dbl> <dbl> <dbl>      <dbl>
##  1       675 Jack Greali…    36  3235     8 6.84        6 7.64     73         92
##  2      7722 Trézéguet       34  1955     6 5.35        1 0.958    50         21
##  3      7724 Wesley          21  1806     5 7.27        1 0.884    36         11
##  4      5612 Anwar El Gh…    34  2082     4 6.38        4 2.88     53         30
##  5      6122 Douglas Luiz    36  2602     3 2.28        2 2.00     38         17
##  6      7721 Conor Houri…    27  1549     3 1.63        5 5.73     29         38
##  7      7723 John McGinn     28  2323     3 3.98        3 2.62     55         37
##  8      1024 Tyrone Mings    33  2902     2 0.917       2 0.571     8          7
##  9       884 Matt Targett    28  2305     1 0.394       2 3.30      7         29
## 10      1685 Ahmed Elmoh…    18  1007     1 0.196       1 2.22      5         22
## # … with 512 more rows, and 9 more variables: yellow_cards <dbl>,
## #   red_cards <dbl>, position <chr>, team_name <chr>, npg <dbl>, npxG <dbl>,
## #   xGChain <dbl>, xGBuildup <dbl>, year <dbl>
…
player_stats

## # A tibble: 185 x 31
##       id web_name   status now_cost cost_change_start total_points minutes
##    <int> <chr>      <chr>     <dbl>             <dbl>        <int>   <int>
##  1     4 Aubameyang a          11.3              -0.7          131    2330
##  2     6 Lacazette  a           8.4              -0.1          129    1916
##  3     9 Xhaka      a           5.2              -0.3           70    2519
##  4    18 Pépé       a           7.7              -0.3          114    1606
##  5    23 Smith Rowe a           4.2              -0.3           74    1438
##  6    24 Saka       a           5.1              -0.4          114    2554
##  7   478 Willian    a           7.5              -0.5           78    1398
##  8   501 Ceballos   a           4.7              -0.3           62    1609
##  9   526 Elneny     a           4.2              -0.3           50    1538
## 10   567 Partey     a           4.9              -0.1           47    1529
## # … with 175 more rows, and 24 more variables: team_name <chr>, position <chr>,
## #   player_id <dbl>, player_name <chr>, games <dbl>, time <dbl>, goals <dbl>,
## #   xG <dbl>, assists <dbl>, xA <dbl>, shots <dbl>, key_passes <dbl>,
## #   npg <dbl>, npxG <dbl>, xGChain <dbl>, xGBuildup <dbl>, goals_90 <dbl>,
## #   xG_90 <dbl>, assists_90 <dbl>, xA_90 <dbl>, shots_90 <dbl>, npg_90 <dbl>,
## #   npxG_90 <dbl>, xGA_90 <dbl>
…
