discogger (day one) | ewen
…
Hopefully you learnt something new from that output, but it’s not particularly ready for any analysis. I’m quite interested in getting more detailed metadata around Dance Mania’s 12" releases, which can be done with discogs_label_releases().

# get DM releases
dm_releases <- discogs_label_releases(label_id = 314)
  
# extract request content
dm_releases_df <- dm_releases$content %>%
  # return 12" releases only
  filter(grepl('12"', format))

dm_releases_df

## # A tibble: 581 x 10
##    status  thumb     format  title catno  year resource_url artist      id
##    <chr>   <chr>     <chr>   <chr> <chr> <int> <chr>        <chr>    <int>
##  1 Accept… https://… "12\""  Hous… 14040  1987 https://api… The Ho… 6.40e4
##  2 Accept… https://… "12\""  What… 5100…  1985 https://api… The Br… 1.09e6
##  3 Accept… https://… "12\""  Hous… B.C.…  1987 https://api… The Ho… 4.21e5
##  4 Accept… https://… "12\""  Hous… B.C.…  1987 https://api… The Ho… 1.97e5
##  5 Accept… https://… "12\""  Frea… D.J.…  1996 https://api… D.J. F… 6.75e4
##  6 Accept… https://… "12\",… This… D.M.…  1988 https://api… Mello … 5.17e6
##  7 Accept… https://… "12\""  This… D.M.…  1988 https://api… Mello … 4.27e5
##  8 Accept… https://… "12\""  Hous… DM 0…  1986 https://api… The Ho… 7.30e3
##  9 Accept… https://… "12\""  Hard… DM 0…  1987 https://api… Duane … 1.40e3
## 10 Accept… https://… "12\",… Hard… DM 0…  1987 https://api… Duane … 6.52e6
## # ... with 571 more rows, and 1 more variable: label_id <dbl>
…
dm_community_metrics

## # A tibble: 317 x 5
## # Groups:   title, artist [317]
##    title                      artist                      year  have  want
##    <chr>                      <chr>                      <int> <int> <int>
##  1 Freaky Style Take: 2       DJ Funk                     1996   170   168
##  2 This X-Mas Rap             Mello D.                    1988     3    23
##  3 This Christmas (Rap)       Mello D.                    1988    30    72
##  4 House Nation               Housemaster Boyz, The And…  1986   967  1113
##  5 Hard Core (On The One)     Duane & Co.                 1987   401   261
##  6 Jack My Body               Yellow House                1987   321   297
##  7 Frequency (Out Of Control) Lil' Louis                  1987     3   379
##  8 Insane                     Suburban Boyz               1988   253   480
##  9 The Original Video Clash   Lil' Louis                  1988   893  1275
## 10 I Want Your Love           Victor Romeo & The Move F…  1988   280   210
## # ... with 307 more rows
…
